module github.com/artemmarkaryan/fisha/facade

go 1.18

require (
	github.com/Masterminds/squirrel v1.5.2
	github.com/amoghe/distillog v0.0.0-20180726233512-ae382b35b717
	github.com/gernest/alien v0.1.0
	github.com/jmoiron/sqlx v1.3.5
	github.com/joho/godotenv v1.4.0
	github.com/lib/pq v1.10.5
	golang.org/x/exp v0.0.0-20220426173459-3bcf042a4bf5
	google.golang.org/protobuf v1.28.0
)

require (
	github.com/lann/builder v0.0.0-20180802200727-47ae307949d0 // indirect
	github.com/lann/ps v0.0.0-20150810152359-62de8c46ede0 // indirect
)
